<svg id="Dermatology_Clinic" data-name="Dermatology Clinic" xmlns="http://www.w3.org/2000/svg" viewBox="0 0 27.411 30.817">
  <defs>
    <style>
      .cls-1 {
        fill: #676767;
      }

      .cls-2 {
        fill: #1d4e6e;
      }
    </style>
  </defs>
  <g id="Group_12" data-name="Group 12" transform="translate(0)">
    <g id="Group_11" data-name="Group 11">
      <path id="Path_1" data-name="Path 1" class="cls-1" d="M49.038,1.42A13.32,13.32,0,0,0,42.959,0c-6.668,0-13.2,4.621-11.417,12.286L30.37,13.7,28.3,17.5l2.015,1.6L30.23,21.79l.805,1.154s-.959,3.6.506,4.113a12.563,12.563,0,0,0,4.029.6,14.722,14.722,0,0,0,1.924-.116l.16,3.277h13.6s-1.346-6.792.7-9.677S60.661,7.4,49.038,1.42Zm.514,25.691c.036.911.119,1.752.2,2.423H38.877l-.1-2.056-.067-1.412-1.4.2a13.86,13.86,0,0,1-1.741.1,11.566,11.566,0,0,1-3.48-.485,3.485,3.485,0,0,1-.042-1.339,9.806,9.806,0,0,1,.227-1.273l.153-.576-.341-.489-.561-.805.071-2.267.02-.644-.5-.4-1.169-.929,1.494-2.735L32.532,13.1l.4-.49L32.793,12A8.812,8.812,0,0,1,32.709,8.1a7.359,7.359,0,0,1,1.445-3.021,9.655,9.655,0,0,1,3.787-2.792,12.867,12.867,0,0,1,5.017-1A12.039,12.039,0,0,1,48.45,2.562a12.947,12.947,0,0,1,4.029,3.059,8.082,8.082,0,0,1,1.705,3.311,11.286,11.286,0,0,1-.709,6.716A22.475,22.475,0,0,1,50.9,20.4C49.888,21.831,49.433,24.09,49.553,27.111Z" transform="translate(-28.299)"/>
    </g>
  </g>
  <g id="Group_14" data-name="Group 14" transform="translate(10.718 17.977)">
    <g id="Group_13" data-name="Group 13">
      <path id="Path_2" data-name="Path 2" class="cls-2" d="M207.012,298.672a.642.642,0,1,0,.642.641A.641.641,0,0,0,207.012,298.672Z" transform="translate(-206.37 -298.672)"/>
    </g>
  </g>
  <g id="Group_16" data-name="Group 16" transform="translate(8.15 20.545)">
    <g id="Group_15" data-name="Group 15">
      <path id="Path_3" data-name="Path 3" class="cls-2" d="M164.34,341.328a.642.642,0,1,0,.642.642A.643.643,0,0,0,164.34,341.328Z" transform="translate(-163.698 -341.328)"/>
    </g>
  </g>
  <g id="Group_18" data-name="Group 18" transform="translate(5.582 12.84)">
    <g id="Group_17" data-name="Group 17">
      <path id="Path_4" data-name="Path 4" class="cls-2" d="M121.676,213.328a.642.642,0,1,0,.642.642A.642.642,0,0,0,121.676,213.328Z" transform="translate(-121.034 -213.328)"/>
    </g>
  </g>
  <g id="Group_20" data-name="Group 20" transform="translate(3.014 15.431)">
    <g id="Group_19" data-name="Group 19">
      <path id="Path_5" data-name="Path 5" class="cls-2" d="M79.012,256.375a.642.642,0,1,0,.642.642A.642.642,0,0,0,79.012,256.375Z" transform="translate(-78.37 -256.375)"/>
    </g>
  </g>
  <g id="Group_22" data-name="Group 22" transform="translate(5.582 17.977)">
    <g id="Group_21" data-name="Group 21">
      <path id="Path_6" data-name="Path 6" class="cls-2" d="M121.676,298.672a.642.642,0,1,0,.642.641A.641.641,0,0,0,121.676,298.672Z" transform="translate(-121.034 -298.672)"/>
    </g>
  </g>
  <g id="Group_24" data-name="Group 24" transform="translate(8.15 15.431)">
    <g id="Group_23" data-name="Group 23">
      <path id="Path_7" data-name="Path 7" class="cls-2" d="M164.34,256.375a.642.642,0,1,0,.642.642A.642.642,0,0,0,164.34,256.375Z" transform="translate(-163.698 -256.375)"/>
    </g>
  </g>
  <g id="Group_26" data-name="Group 26" transform="translate(10.718 12.84)">
    <g id="Group_25" data-name="Group 25">
      <path id="Path_8" data-name="Path 8" class="cls-2" d="M207.012,213.328a.642.642,0,1,0,.642.642A.642.642,0,0,0,207.012,213.328Z" transform="translate(-206.37 -213.328)"/>
    </g>
  </g>
  <g id="Group_28" data-name="Group 28" transform="translate(10.718 23.113)">
    <g id="Group_27" data-name="Group 27">
      <path id="Path_9" data-name="Path 9" class="cls-2" d="M207.012,384a.642.642,0,1,0,.642.642A.642.642,0,0,0,207.012,384Z" transform="translate(-206.37 -384)"/>
    </g>
  </g>
  <g id="Group_30" data-name="Group 30" transform="translate(5.582 23.113)">
    <g id="Group_29" data-name="Group 29">
      <path id="Path_10" data-name="Path 10" class="cls-2" d="M121.676,384a.642.642,0,1,0,.642.642A.642.642,0,0,0,121.676,384Z" transform="translate(-121.034 -384)"/>
    </g>
  </g>
  <g id="Group_32" data-name="Group 32" transform="translate(13.286 20.545)">
    <g id="Group_31" data-name="Group 31">
      <path id="Path_11" data-name="Path 11" class="cls-2" d="M249.675,341.328a.642.642,0,1,0,.642.642A.642.642,0,0,0,249.675,341.328Z" transform="translate(-249.033 -341.328)"/>
    </g>
  </g>
  <g id="Group_34" data-name="Group 34" transform="translate(13.286 15.431)">
    <g id="Group_33" data-name="Group 33">
      <path id="Path_12" data-name="Path 12" class="cls-2" d="M249.675,256.375a.642.642,0,1,0,.642.642A.642.642,0,0,0,249.675,256.375Z" transform="translate(-249.033 -256.375)"/>
    </g>
  </g>
</svg>
