<svg xmlns="http://www.w3.org/2000/svg" viewBox="0 0 31.549 31.549">
  <defs>
    <style>
      .cls-1 {
        fill: #676767;
      }

      .cls-2 {
        fill: #1d4e6e;
      }
    </style>
  </defs>
  <g id="OB-GYN_Clinic" data-name="OB-GYN Clinic" transform="translate(0)">
    <g id="Group_64" data-name="Group 64" transform="translate(16.3 10.808)">
      <g id="Group_63" data-name="Group 63">
        <path id="Path_31" data-name="Path 31" class="cls-1" d="M267.242,175.49a.462.462,0,0,0-.645.106.825.825,0,0,1-1.225,0,.462.462,0,1,0-.751.539,1.742,1.742,0,0,0,2.727,0A.462.462,0,0,0,267.242,175.49Z" transform="translate(-264.535 -175.403)"/>
      </g>
    </g>
    <g id="Group_66" data-name="Group 66" transform="translate(0 0)">
      <g id="Group_65" data-name="Group 65">
        <path id="Path_32" data-name="Path 32" class="cls-2" d="M27.077,10.733a6.389,6.389,0,1,0-9.125,6.358c-.334.146-.739.293-1.158.444-.2.071-.4.144-.605.221L12.542,14.64a1.315,1.315,0,0,0-1.855,1.854L13.1,19.319a6.444,6.444,0,0,0-.987.9,5.386,5.386,0,0,1-3-3.293,5.018,5.018,0,0,1,.671-4.158,3.886,3.886,0,0,0,.092-4.5,5.559,5.559,0,0,1-.562-1.437,4.178,4.178,0,0,1,.8-3.607c1.341-1.62,3.914-2.252,5.454-2.3a14.786,14.786,0,0,1,10,3.692.462.462,0,0,0,.611-.694,15.773,15.773,0,0,0-22.26,22.26.462.462,0,1,0,.694-.611A14.859,14.859,0,0,1,9.879,2.138a5.488,5.488,0,0,0-.475.5,5.062,5.062,0,0,0-1,4.369,6.353,6.353,0,0,0,.643,1.678A2.986,2.986,0,0,1,9,12.273a5.929,5.929,0,0,0-.78,4.917A5.82,5.82,0,0,0,9.8,19.756a2.66,2.66,0,0,0-.607.1,2.623,2.623,0,0,0-.548.223l-.011.006c-.078.045-.155.093-.23.143l-.031.023-.555.444c-.118-.183-.234-.355-.357-.528a1.241,1.241,0,0,0-2.238.9c.069.486.372,1.859.421,2.071,0,0,.022.084.03.1l.052.128.007.016a2.012,2.012,0,0,0,.182.324,2.08,2.08,0,0,0,.534.535,2.112,2.112,0,0,0,1.453.363,2.169,2.169,0,0,0,.747-.232l.432-.228L9.8,26.384a2.82,2.82,0,0,0,3.391,1.889c2.8-.716,8.016-3.2,11.537-11.76a1.65,1.65,0,0,1,.4-.56A6.376,6.376,0,0,0,27.077,10.733Zm-2.592,4.552a2.564,2.564,0,0,0-.615.877C20.5,24.352,15.589,26.7,12.959,27.377A1.9,1.9,0,0,1,10.679,26.1L9.8,23.335a.462.462,0,0,0-.656-.269l-.918.485a1.234,1.234,0,0,1-.425.133,1.19,1.19,0,0,1-.821-.2,1.155,1.155,0,0,1-.3-.3,1.1,1.1,0,0,1-.1-.171l-.037-.093c-.062-.268-.344-1.558-.4-1.986a.317.317,0,0,1,.572-.229c.2.282.385.57.6.917A.462.462,0,0,0,8,21.737l.944-.754c.05-.033.1-.065.154-.1a1.7,1.7,0,0,1,.352-.143,1.766,1.766,0,0,1,.773-.041,1.793,1.793,0,0,1,1.248.868,1.9,1.9,0,0,1,.16.37l.058.183.475,1.678a.462.462,0,1,0,.889-.252l-.477-1.685,0-.014-.059-.186a2.743,2.743,0,0,0-.111-.294,5.2,5.2,0,0,1,1.3-1.346l.627.734a1.1,1.1,0,0,0,.434.307,10.445,10.445,0,0,0,3.466.6h.015a.462.462,0,0,0,.014-.924,9.687,9.687,0,0,1-3.14-.527L15.1,20.2a.174.174,0,0,1-.068-.048L11.39,15.894a.391.391,0,0,1,.043-.551.394.394,0,0,1,.508,0L15.755,18.6a.463.463,0,0,0,.318.11,8.5,8.5,0,0,1,3.013.466.462.462,0,1,0,.292-.877,10.644,10.644,0,0,0-1.161-.316,4.235,4.235,0,0,0,.876-.47,6.141,6.141,0,0,0,.769.15A6.589,6.589,0,0,0,21.2,17.7a.462.462,0,0,0-.069-.922,5.661,5.661,0,0,1-1.15-.032,5.39,5.39,0,0,1-2.771-1.232,1.8,1.8,0,0,0,.984-.868.462.462,0,0,0-.829-.409.965.965,0,0,1-.716.477,1.172,1.172,0,0,1-.2.015,5.385,5.385,0,0,1-1.15-2.689,5.467,5.467,0,1,1,9.192,3.243Z" transform="translate(0 0)"/>
      </g>
    </g>
    <g id="Group_68" data-name="Group 68" transform="translate(5.207 5.207)">
      <g id="Group_67" data-name="Group 67">
        <path id="Path_33" data-name="Path 33" class="cls-1" d="M106.921,84.663a.462.462,0,1,0-.694.611,14.848,14.848,0,0,1-20.955,20.955.462.462,0,1,0-.611.694,15.706,15.706,0,0,0,10.41,3.925q.238,0,.477-.007a15.773,15.773,0,0,0,11.373-26.178Z" transform="translate(-84.505 -84.506)"/>
      </g>
    </g>
  </g>
</svg>
