<svg xmlns="http://www.w3.org/2000/svg" viewBox="0 0 18.635 38.082">
  <defs>
    <style>
      .cls-1 {
        fill: #1d4e6e;
        stroke: #1d4e6e;
      }

      .cls-1, .cls-2 {
        stroke-width: 0.2px;
      }

      .cls-2 {
        fill: #676767;
        stroke: #676767;
      }
    </style>
  </defs>
  <g id="Orthopaedic_Surgery_Clinic" data-name="Orthopaedic Surgery Clinic" transform="translate(0.173 0.1)">
    <path id="Path_26" data-name="Path 26" class="cls-1" d="M173.967,13.034l5.611-10.223a1.056,1.056,0,0,0-.418-1.433L176.887.13a1.055,1.055,0,0,0-1.433.418l-5.611,10.223c0,.009-.009.018-.013.027s-.213.446-.993.446a3.84,3.84,0,0,1-1.443-.35,2.073,2.073,0,0,0-.8-.174,1.928,1.928,0,0,0-1.654,1.14,3.649,3.649,0,0,0,1.449,4.943,1.854,1.854,0,0,0,.914.213,5.455,5.455,0,0,0,.681-.056,4.8,4.8,0,0,1,.581-.05,1.073,1.073,0,0,1,.532.115,1.848,1.848,0,0,1,.653.9,2.521,2.521,0,0,0,.989,1.261,3.645,3.645,0,0,0,4.946-1.432,1.822,1.822,0,0,0-.506-2.594c-1.765-1.219-1.247-2.07-1.227-2.1A.331.331,0,0,0,173.967,13.034Zm-.706.68a3.3,3.3,0,0,0,1.557,1.969,1.212,1.212,0,0,1,.334,1.737l-.015.024a3.016,3.016,0,0,1-4.1,1.195,1.987,1.987,0,0,1-.723-.979,2.357,2.357,0,0,0-.919-1.187,1.7,1.7,0,0,0-.835-.193,5.325,5.325,0,0,0-.66.055,4.915,4.915,0,0,1-.6.051,1.228,1.228,0,0,1-.611-.136,3,3,0,0,1-1.446-1.8,3.075,3.075,0,0,1-.078-.345l.807.43a.315.315,0,0,0,.3-.556l-1.111-.593c-.008,0-.018-.007-.026-.011a2.986,2.986,0,0,1,.152-.739l3.206,1.749a.315.315,0,0,0,.3-.553l-3.248-1.772a1.267,1.267,0,0,1,1.05-.711,1.45,1.45,0,0,1,.559.125,4.449,4.449,0,0,0,1.688.4,1.635,1.635,0,0,0,1.562-.807l.56-1.02,1.687.843a.315.315,0,0,0,.282-.563l-1.665-.832L176.005.851a.426.426,0,0,1,.374-.221.419.419,0,0,1,.2.053l2.273,1.247a.426.426,0,0,1,.168.578l-.263.478-1.836-.865a.315.315,0,0,0-.282.563l1.813.858-5.038,9.179A1.41,1.41,0,0,0,173.26,13.714Z" transform="translate(-161.348)"/>
    <path id="Path_27" data-name="Path 27" class="cls-2" d="M149.022,272.224a2.521,2.521,0,0,0-1.474.63,1.3,1.3,0,0,1-2.015,0,2.52,2.52,0,0,0-1.474-.63,3.652,3.652,0,0,0-3.647,3.635,1.822,1.822,0,0,0,1.692,2.031c2.134.22,2.089,1.215,2.087,1.251a.32.32,0,0,0,0,.035v8.275a1.057,1.057,0,0,0,1.056,1.056h2.593a1.057,1.057,0,0,0,1.056-1.056v-8.275c0-.01,0-.02,0-.03s-.04-1.035,2.09-1.256a1.821,1.821,0,0,0,1.69-2.031A3.653,3.653,0,0,0,149.022,272.224Zm1.894,5.039c-2.64.274-2.663,1.72-2.653,1.922v8.265a.426.426,0,0,1-.426.426h-2.593a.426.426,0,0,1-.426-.426v-1.783h1.89a.315.315,0,0,0,0-.63h-1.89v-1.074h.631a.315.315,0,1,0,0-.63h-.631v-4.146a1.408,1.408,0,0,0-.338-.948,3.3,3.3,0,0,0-2.312-.977,1.212,1.212,0,0,1-1.128-1.362q0-.014,0-.029a3.021,3.021,0,0,1,3.017-3.019,1.987,1.987,0,0,1,1.1.51,1.883,1.883,0,0,0,2.754,0,1.987,1.987,0,0,1,1.1-.51,3.024,3.024,0,0,1,2.921,2.257h-3.309a.315.315,0,1,0,0,.63h3.4c0,.044,0,.088,0,.132,0,.01,0,.019,0,.029A1.22,1.22,0,0,1,150.915,277.263Z" transform="translate(-139.048 -250.625)"/>
    <path id="Path_28" data-name="Path 28" class="cls-1" d="M127.254,208.986a4.292,4.292,0,0,0,1.9.607h0a1.294,1.294,0,0,0,1.342-1.172,1.6,1.6,0,0,0-.319-1.326,1.891,1.891,0,0,0-1.544-.628,4.275,4.275,0,0,0-1.176.185l-.023.008a2.421,2.421,0,0,1-.753.113,2.678,2.678,0,0,1-2.479-1.873c-.169-.379-.393-.571-.664-.571-.168,0-.681,0-1.132,1.7-.231.871-.688,3.474.217,3.991a.315.315,0,0,0,.377-.049,4.842,4.842,0,0,1,2.934-1.312A2.791,2.791,0,0,1,127.254,208.986Zm-4.427.3a3.155,3.155,0,0,1-.108-1.134,6.513,6.513,0,0,1,.812-3.171.823.823,0,0,1,.1.176,3.3,3.3,0,0,0,3.054,2.246,3.072,3.072,0,0,0,.96-.148,3.641,3.641,0,0,1,.992-.157,1.319,1.319,0,0,1,1.059.4.969.969,0,0,1,.186.806c-.089.464-.306.661-.724.661a3.785,3.785,0,0,1-1.611-.535,3.413,3.413,0,0,0-1.609-.4A5.181,5.181,0,0,0,122.827,209.286Z" transform="translate(-122.088 -188.476)"/>
  </g>
</svg>
